<svg width="245" height="245" viewBox="0 0 245 245" fill="none" xmlns="http://www.w3.org/2000/svg">
<path d="M124.281 94.6564C124.281 90.4279 120.853 87.0001 116.625 87.0001H93.6562C89.4278 87.0001 86 90.4279 86 94.6564V117.625C86 121.854 89.4278 125.281 93.6562 125.281H116.625C120.853 125.281 124.281 121.854 124.281 117.625V94.6564Z" fill="#22F55D"/>
<path d="M177.875 148.25C177.875 144.022 174.447 140.594 170.219 140.594H147.25C143.022 140.594 139.594 144.022 139.594 148.25V171.219C139.594 175.447 143.022 178.875 147.25 178.875H170.219C174.447 178.875 177.875 175.447 177.875 171.219V148.25Z" fill="#22F55D"/>
<path d="M177.875 87.0001H170.219C165.99 87.0001 162.562 90.4279 162.562 94.6564V109.969C162.562 114.197 159.135 117.625 154.906 117.625H147.25M86 148.25H108.969C113.197 148.25 116.625 151.678 116.625 155.906V178.875M170.219 178.875H147.25C143.022 178.875 139.594 175.447 139.594 171.219V148.25C139.594 144.022 143.022 140.594 147.25 140.594H170.219C174.447 140.594 177.875 144.022 177.875 148.25V171.219C177.875 175.447 174.447 178.875 170.219 178.875ZM116.625 125.281H93.6563C89.4278 125.281 86 121.854 86 117.625V94.6564C86 90.4279 89.4278 87.0001 93.6562 87.0001H116.625C120.853 87.0001 124.281 90.4279 124.281 94.6564V117.625C124.281 121.854 120.853 125.281 116.625 125.281Z" stroke="#22F55D" stroke-width="10.186" stroke-linecap="round" stroke-linejoin="round"/>
<path d="M168.438 76.5626H160.781C156.553 76.5626 153.125 79.9904 153.125 84.2189V99.5314C153.125 103.76 149.697 107.188 145.469 107.188H137.812M76.5625 137.813H99.5312C103.76 137.813 107.188 141.24 107.188 145.469V168.438M160.781 168.438H137.813C133.584 168.438 130.156 165.01 130.156 160.781V137.813C130.156 133.584 133.584 130.156 137.812 130.156H160.781C165.01 130.156 168.438 133.584 168.438 137.813V160.781C168.438 165.01 165.01 168.438 160.781 168.438ZM107.188 114.844H84.2188C79.9903 114.844 76.5625 111.416 76.5625 107.188V84.2189C76.5625 79.9904 79.9903 76.5626 84.2187 76.5626H107.187C111.416 76.5626 114.844 79.9904 114.844 84.2189V107.188C114.844 111.416 111.416 114.844 107.188 114.844Z" stroke="#070000" stroke-width="10.186" stroke-linecap="round" stroke-linejoin="round"/>
<path d="M84.2188 206.719H72.592C53.6427 206.719 38.2812 191.357 38.2812 172.408V160.781M160.781 206.719H172.408C191.357 206.719 206.719 191.357 206.719 172.408V160.781M206.719 84.2189V72.5921C206.719 53.6428 191.357 38.2814 172.408 38.2814H160.781M84.2188 38.2814H72.592C53.6427 38.2814 38.2812 53.6428 38.2812 72.5921V84.2189" stroke="#070000" stroke-width="10.186" stroke-linecap="round" stroke-linejoin="round"/>
</svg>
